{
    "baseUrl" : "https://www.jiosaavn.com",
    "reporter": "cypress-multi-reporters",
    "reporterOptions" : {
        "reporterEnabled" : "mochawesome",
        "mochawesomeReporterOptions" : {
            "reportDir" : "cypress/reports/mocha/",
            "quite" : true,
            "overwrite" : false,
            "html" : false,
            "json" : true
        }
    },
    "testFiles" : "**/*.{feature, features}",
    "env": {
        "username": "tanu@saavn.com",
        "password": "Tanu1234"
    }
}
